<?xml version="1.0" encoding="UTF-8" standalone="no"?>
<!-- Created with Inkscape (http://www.inkscape.org/) -->

<svg
   xmlns:dc="http://purl.org/dc/elements/1.1/"
   xmlns:cc="http://creativecommons.org/ns#"
   xmlns:rdf="http://www.w3.org/1999/02/22-rdf-syntax-ns#"
   xmlns:svg="http://www.w3.org/2000/svg"
   xmlns="http://www.w3.org/2000/svg"
   xmlns:sodipodi="http://sodipodi.sourceforge.net/DTD/sodipodi-0.dtd"
   xmlns:inkscape="http://www.inkscape.org/namespaces/inkscape"
   width="114.3mm"
   height="218.72223mm"
   viewBox="0 0 114.3 218.72223"
   version="1.1"
   id="svg8"
   inkscape:version="0.92.5 (2060ec1f9f, 2020-04-08)"
   sodipodi:docname="Smarphone.svg">
  <defs
     id="defs2" />
  <sodipodi:namedview
     id="base"
     pagecolor="#ffffff"
     bordercolor="#666666"
     borderopacity="1.0"
     inkscape:pageopacity="0.0"
     inkscape:pageshadow="2"
     inkscape:zoom="0.7"
     inkscape:cx="247.03745"
     inkscape:cy="330.02689"
     inkscape:document-units="mm"
     inkscape:current-layer="layer1"
     showgrid="false"
     inkscape:window-width="1920"
     inkscape:window-height="1016"
     inkscape:window-x="0"
     inkscape:window-y="27"
     inkscape:window-maximized="1" />
  <metadata
     id="metadata5">
    <rdf:RDF>
      <cc:Work
         rdf:about="">
        <dc:format>image/svg+xml</dc:format>
        <dc:type
           rdf:resource="http://purl.org/dc/dcmitype/StillImage" />
        <dc:title></dc:title>
      </cc:Work>
    </rdf:RDF>
  </metadata>
  <g
     inkscape:label="Calque 1"
     inkscape:groupmode="layer"
     id="layer1"
     transform="translate(-44.903568,-34.936502)">
    <g
       id="g72"
       transform="translate(-4.5357171,3.7797619)">
      <path
         style="fill:#fefefe;stroke-width:0.35277778"
         d="M 106.58928,249.87897 H 49.439285 V 140.51785 31.15674 h 57.149995 57.15 v 109.36111 109.36112 z"
         id="path88"
         inkscape:connector-curvature="0" />
      <path
         style="fill:#cccccc;stroke-width:0.35277778"
         d="m 106.36198,249.85384 -41.929639,-0.0251 -2.116667,-0.60823 -2.116667,-0.60823 -1.921689,-1.04233 -1.921689,-1.04234 -1.830242,-1.78205 -1.830243,-1.78206 -1.059098,-2.0985 -1.059098,-2.0985 -0.568832,-1.91611 -0.568831,-1.91612 V 140.51785 46.101466 l 0.562814,-1.916113 0.562815,-1.916113 1.11288,-2.106767 1.11288,-2.106766 1.773788,-1.773789 1.773789,-1.773789 2.106767,-1.096173 2.106767,-1.096172 1.763889,-0.491328 1.763889,-0.491327 h 42.509717 42.50973 l 1.76389,0.491327 1.76388,0.491328 2.10677,1.096172 2.10677,1.096173 1.77379,1.773789 1.77379,1.773789 1.11288,2.106766 1.11288,2.106767 0.56281,1.916113 0.56281,1.916113 v 94.416384 94.41639 l -0.56883,1.91612 -0.56883,1.91611 -1.0591,2.0985 -1.0591,2.0985 -1.82569,1.78206 -1.8257,1.78205 -2.10262,1.11683 -2.10263,1.11682 -2.16758,0.55887 -2.16759,0.55887 -41.92963,-0.0251 z"
         id="path86"
         inkscape:connector-curvature="0" />
      <path
         style="fill:#888888;stroke-width:0.35277778"
         d="m 106.36198,249.85384 -41.929639,-0.0251 -2.116667,-0.60823 -2.116667,-0.60823 -1.813236,-0.98906 -1.813237,-0.98907 -1.623282,-1.46438 -1.623282,-1.46438 -1.250599,-2.11667 -1.2506,-2.11666 -0.692743,-2.24203 -0.692743,-2.24202 V 140.54473 46.101466 l 0.568082,-1.916113 0.568082,-1.916113 0.706353,-1.411111 0.706354,-1.411111 1.349999,-1.808605 1.35,-1.808605 2.132341,-1.423922 2.13234,-1.423923 2.386975,-0.824417 2.386974,-0.824417 h 42.862495 42.8625 l 2.38698,0.824417 2.38697,0.824417 2.13234,1.423923 2.13234,1.423922 1.35,1.808605 1.35,1.808605 0.70636,1.411111 0.70635,1.411111 0.56808,1.916113 0.56808,1.916113 v 94.443264 94.44325 l -0.69274,2.24202 -0.69274,2.24203 -1.2506,2.11666 -1.2506,2.11667 -1.64195,1.48081 -1.64195,1.48081 -1.97096,1.04713 -1.97096,1.04712 -2.16758,0.55887 -2.16759,0.55887 -41.92963,-0.0251 z"
         id="path84"
         inkscape:connector-curvature="0" />
      <path
         style="fill:#666666;stroke-width:0.35277778"
         d="m 106.4129,249.84437 -41.627782,-0.0242 -2.069367,-0.50088 -2.069368,-0.50089 -2.018254,-1.07572 -2.018255,-1.07571 -1.641952,-1.48082 -1.641952,-1.48081 -1.250599,-2.11666 -1.2506,-2.11667 -0.692743,-2.24204 -0.692743,-2.24202 V 140.54473 46.101466 l 0.568082,-1.916113 0.568082,-1.916113 0.706353,-1.411111 0.706354,-1.411111 1.349999,-1.808605 1.35,-1.808605 2.132341,-1.423922 2.13234,-1.423923 2.386975,-0.824417 2.386974,-0.824417 h 42.862495 42.8625 l 2.38698,0.824417 2.38697,0.824417 2.13234,1.423923 2.13234,1.423922 1.35,1.808605 1.35,1.808605 0.70636,1.411111 0.70635,1.411111 0.56808,1.916113 0.56808,1.916113 v 94.443264 94.44325 l -0.69274,2.24202 -0.69274,2.24203 -1.2506,2.11666 -1.2506,2.11667 -1.64195,1.48081 -1.64195,1.48081 -2.00379,1.06801 -2.00379,1.06801 -2.26022,0.53277 -2.26023,0.53277 -41.62777,-0.0242 z"
         id="path82"
         inkscape:connector-curvature="0" />
      <path
         style="fill:#191919;stroke-width:0.35277778"
         d="m 106.4129,249.84437 -41.627782,-0.0242 -2.069367,-0.50088 -2.069368,-0.50089 -2.018254,-1.07572 -2.018255,-1.07571 -1.641952,-1.48082 -1.641952,-1.48081 -1.250599,-2.11666 -1.2506,-2.11667 -0.692743,-2.24204 -0.692743,-2.24202 V 140.7312 46.474422 l 0.540171,-2.073856 0.54017,-2.073855 1.117956,-2.097501 1.117957,-2.0975 1.502253,-1.545705 1.502253,-1.545705 1.652016,-1.047678 1.652017,-1.047678 2.331354,-0.805907 2.331353,-0.805908 h 42.862495 42.8625 l 2.33136,0.805908 2.33135,0.805907 1.65202,1.047678 1.65202,1.047678 1.50225,1.545705 1.50225,1.545705 1.11796,2.0975 1.11796,2.097501 0.54017,2.073855 0.54016,2.073856 v 94.256778 94.25678 l -0.69274,2.24202 -0.69274,2.24203 -1.2506,2.11666 -1.2506,2.11667 -1.64195,1.48081 -1.64195,1.48081 -2.00379,1.06801 -2.00379,1.06801 -2.26022,0.53277 -2.26023,0.53277 -41.62777,-0.0242 z"
         id="path80"
         inkscape:connector-curvature="0" />
      <path
         style="fill:#050505;stroke-width:0.35277778"
         d="m 106.4129,249.84437 -41.627782,-0.0242 -2.069367,-0.50088 -2.069368,-0.50089 -2.018254,-1.07572 -2.018255,-1.07571 -1.641952,-1.48082 -1.641952,-1.48081 -1.250599,-2.11666 -1.2506,-2.11667 -0.692743,-2.24204 -0.692743,-2.24202 V 140.7312 46.474422 l 0.540171,-2.073856 0.54017,-2.073855 1.117956,-2.097501 1.117957,-2.0975 1.502253,-1.545705 1.502253,-1.545705 1.652016,-1.047678 1.652017,-1.047678 2.331354,-0.805907 2.331353,-0.805908 h 42.862495 42.8625 l 2.33136,0.805908 2.33135,0.805907 1.65202,1.047678 1.65202,1.047678 1.50225,1.545705 1.50225,1.545705 1.11796,2.0975 1.11796,2.097501 0.54017,2.073855 0.54016,2.073856 v 94.256778 94.25678 l -0.69274,2.24202 -0.69274,2.24203 -1.2506,2.11666 -1.2506,2.11667 -1.64195,1.48081 -1.64195,1.48081 -2.00379,1.06801 -2.00379,1.06801 -2.26022,0.53277 -2.26023,0.53277 -41.62777,-0.0242 z m 0.17638,-14.07651 h 53.62223 V 141.3998 47.031741 H 106.58928 52.967063 v 94.368059 94.36806 z"
         id="path78"
         inkscape:connector-curvature="0" />
      <path
         style="fill:#020202;stroke-width:0.35277778"
         d="m 107.29484,249.7587 -42.509722,0.0564 -1.411111,-0.32075 -1.411111,-0.32075 -1.499305,-0.55843 -1.499306,-0.55843 v -0.32359 -0.3236 l -0.297297,0.0882 -0.297298,0.0882 -1.829887,-1.17855 -1.829887,-1.17856 -0.889278,-1.1145 -0.889279,-1.1145 0.03045,-0.27718 0.03045,-0.27718 -0.545008,-0.54501 -0.545008,-0.54501 0.234138,-0.37884 0.234139,-0.37885 -0.365892,0.22614 -0.365891,0.22613 -0.712108,-1.67093 -0.712107,-1.67093 -0.385652,-1.41111 -0.385652,-1.41112 0.0019,-94.01528 0.0019,-94.015278 0.217528,-1.315912 0.217528,-1.315912 0.219562,0.134704 0.219561,0.134705 0.03555,-0.983806 0.03555,-0.983805 1.308852,-2.340447 1.308852,-2.340446 0.419489,0.240491 0.419489,0.24049 -0.2591,-0.286261 -0.2591,-0.286261 0.611878,-0.502015 0.611878,-0.502015 -0.529167,0.231011 -0.529167,0.23101 0.995671,-0.915445 0.995671,-0.915445 0.381753,0.235936 0.381753,0.235937 -0.245643,-0.397459 -0.245643,-0.397458 1.690442,-1.061371 1.690441,-1.061371 2.293055,-0.800539 2.293056,-0.800539 h 42.862493 42.8625 l 2.29306,0.800539 2.29306,0.800539 1.69044,1.061371 1.69044,1.061371 -0.24565,0.397458 -0.24564,0.397459 0.38176,-0.235937 0.38175,-0.235936 0.99567,0.915445 0.99567,0.915445 -0.52917,-0.23101 -0.52916,-0.231011 0.61188,0.502015 0.61187,0.502015 -0.2591,0.286261 -0.2591,0.286261 0.41949,-0.24049 0.41949,-0.240491 1.23813,2.213979 1.23813,2.213978 0.54724,2.101016 0.54724,2.101016 v 94.247988 94.24798 l -0.66758,2.07443 -0.66758,2.07443 -0.44234,0.95907 -0.44234,0.95908 -0.35569,-0.21983 -0.3557,-0.21984 0.23414,0.37885 0.23413,0.37884 -0.5576,0.55761 -0.55761,0.55761 h 0.20972 0.20972 l -0.57589,0.87891 -0.57589,0.87892 -0.36869,-0.22787 -0.3687,-0.22787 0.23258,0.37632 0.23257,0.37631 -1.32459,1.01814 -1.3246,1.01813 -0.97014,0.60847 -0.97014,0.60847 v -0.20972 -0.20972 l -0.54557,0.54557 -0.54557,0.54557 -1.83568,0.62602 -1.83568,0.62603 z m -41.451388,-1.64362 h 0.176389 v -0.17639 -0.17639 h -0.176389 -0.176389 v 0.17639 0.17639 z m -7.408334,-1.05833 h 0.176389 v -0.17639 -0.17639 h -0.176389 -0.176389 v 0.17639 0.17639 z m 96.308332,0 h 0.17639 v -0.17639 -0.17639 h -0.17639 -0.17639 v 0.17639 0.17639 z m 1.94028,-1.76389 h 0.47037 l -0.23518,-0.23519 -0.23519,-0.23518 -0.23519,0.23518 -0.23518,0.23519 z M 55.280938,244.94008 h 0.155569 v -0.15557 -0.15557 l -0.407285,-0.25171 -0.407285,-0.25172 0.251716,0.40729 0.251716,0.40728 z m 102.595872,0 h 0.17639 l 0.21803,-0.35278 0.21803,-0.35277 h -0.17639 -0.17639 l -0.21803,0.35277 -0.21803,0.35278 z M 55.965674,244.5873 h 0.176389 v -0.17639 -0.17638 h -0.176389 -0.176389 v 0.17638 0.17639 z m 101.247226,0 h 0.17638 v -0.17639 -0.17638 h -0.17638 -0.17639 v 0.17638 0.17639 z M 53.849007,243.52897 h 0.176389 v -0.17639 -0.17639 h -0.176389 -0.176389 v 0.17639 0.17639 z m 1.058334,0 h 0.176388 v -0.17639 -0.17639 h -0.176388 -0.176389 v 0.17639 0.17639 z m 103.363889,0 h 0.17639 v -0.17639 -0.17639 h -0.17639 -0.17639 v 0.17639 0.17639 z m 1.05833,0 h 0.17639 v -0.17639 -0.17639 h -0.17639 -0.17639 v 0.17639 0.17639 z M 54.554563,242.82341 h 0.176389 v -0.17638 -0.17639 h -0.176389 -0.176389 v 0.17639 0.17638 z m 104.069447,0 h 0.17639 v -0.17638 -0.17639 h -0.17639 -0.17639 v 0.17639 0.17638 z M 53.143452,241.76508 h 0.176389 v -0.17639 -0.17639 h -0.176389 -0.176389 v 0.17639 0.17639 z m 106.891668,0 h 0.17639 v -0.17639 -0.17639 h -0.17639 -0.17639 v 0.17639 0.17639 z m 2.46944,-5.29167 h 0.17639 v -0.17638 -0.17639 h -0.17639 -0.17639 v 0.17639 0.17638 z m -55.91528,-0.70555 h 53.62223 V 141.3998 47.031741 H 106.58928 52.967063 v 94.368059 94.36806 z m 56.26806,-0.35278 h 0.17639 v -0.17639 -0.17639 h -0.17639 -0.17639 v 0.17639 0.17639 z M 52.085118,40.68174 h 0.176389 v -0.176389 -0.176388 h -0.176389 -0.176389 v 0.176388 0.176389 z m 109.008332,0 h 0.17639 v -0.176389 -0.176388 h -0.17639 -0.17639 v 0.176388 0.176389 z M 52.790674,39.976185 h 0.176389 v -0.176389 -0.176389 h -0.176389 -0.176389 v 0.176389 0.176389 z m 107.597226,0 h 0.17638 v -0.176389 -0.176389 h -0.17638 -0.17639 v 0.176389 0.176389 z m -2.11667,-2.116667 h 0.17639 V 37.683129 37.50674 h -0.17639 -0.17639 v 0.176389 0.176389 z m -0.70556,-0.352778 h 0.17639 v -0.176389 -0.176389 h -0.17639 -0.17639 v 0.176389 0.176389 z m -0.35277,-0.705555 h 0.17638 v -0.176389 -0.176389 h -0.17638 -0.17639 v 0.176389 0.176389 z M 55.260118,36.448407 h 0.176389 v -0.176389 -0.176389 h -0.176389 -0.176389 v 0.176389 0.176389 z m 102.658332,0 h 0.17639 v -0.176389 -0.176389 h -0.17639 -0.17639 v 0.176389 0.176389 z m -1.41111,-0.352778 h 0.17639 V 35.91924 35.742851 h -0.17639 -0.17639 v 0.176389 0.176389 z M 59.846229,34.33174 h 0.176389 v -0.176389 -0.176389 h -0.176389 -0.176388 v 0.176389 0.176389 z m 93.486111,0 h 0.17639 v -0.176389 -0.176389 h -0.17639 -0.17639 v 0.176389 0.176389 z m 1.05833,0 h 0.17639 v -0.176389 -0.176389 h -0.17639 -0.17639 v 0.176389 0.176389 z M 59.846229,33.626185 h 0.176389 v -0.176389 -0.176389 h -0.176389 -0.176388 v 0.176389 0.176389 z m 93.486111,0 h 0.17639 v -0.176389 -0.176389 h -0.17639 -0.17639 v 0.176389 0.176389 z m -19.75556,-0.352778 h 0.17639 v -0.176389 -0.176389 h -0.17639 -0.17638 v 0.176389 0.176389 z m 2.46945,-0.352778 h 0.17639 V 32.74424 32.567851 h -0.17639 -0.17639 v 0.176389 0.176389 z m 13.05278,0 h 0.17639 V 32.74424 32.567851 h -0.17639 -0.17639 v 0.176389 0.176389 z M 77.485118,32.215073 h 0.176389 v -0.176389 -0.176388 h -0.176389 -0.176389 v 0.176388 0.176389 z m 58.208332,0 h 0.17639 v -0.176389 -0.176388 h -0.17639 -0.17639 v 0.176388 0.176389 z"
         id="path76"
         inkscape:connector-curvature="0" />
      <path
         style="fill:#000000;stroke-width:0.35277778"
         d="m 106.44502,249.85537 -41.659902,-0.0236 -1.411111,-0.44231 -1.411111,-0.44231 -0.264583,-0.0632 -0.264584,-0.0633 -0.264583,-0.0248 -0.264583,-0.0248 0.705555,-0.31967 0.705556,-0.31966 -1.26864,0.19715 -1.268639,0.19714 -0.570845,-0.57084 -0.570844,-0.57084 -0.277183,0.0148 -0.277182,0.0148 -1.665178,-1.079 -1.665178,-1.079 -1.050293,-1.27419 -1.050294,-1.27418 0.391978,-0.73589 0.391978,-0.73585 -0.52607,0.43367 -0.52607,0.43366 -0.770698,-1.37127 -0.770698,-1.37127 -0.701267,-2.19516 -0.701266,-2.19515 V 140.72241 46.474422 l 0.540776,-2.076181 0.540776,-2.07618 0.920769,-1.691755 0.920768,-1.691755 0.362295,0.223911 0.362295,0.22391 -0.21537,-0.561245 -0.21537,-0.561246 0.492744,-0.408941 0.492743,-0.408941 0.309435,0.191241 0.309435,0.191242 v -0.498131 -0.49813 l -0.382176,0.221511 -0.382176,0.221512 0.672038,-0.766197 0.672037,-0.766196 h 0.318922 0.318921 l -0.248963,0.440973 -0.248963,0.440972 0.492727,-0.458611 0.492726,-0.458612 v -0.418579 -0.41858 l 1.055499,-0.505888 1.055499,-0.505887 0.481182,-0.481182 0.481182,-0.481182 0.511696,0.42467 0.511697,0.424671 -0.1081,-0.472752 -0.1081,-0.472752 1.763889,-0.733492 1.763889,-0.733491 h 42.862503 42.8625 l 2.21947,0.677639 2.21947,0.67764 -0.19907,0.518786 -0.19908,0.518787 0.49987,-0.414853 0.49986,-0.414853 0.48119,0.481182 0.48118,0.481182 1.0555,0.505887 1.0555,0.505888 v 0.41858 0.418579 l 0.49272,0.458612 0.49273,0.458611 -0.24896,-0.440972 -0.24897,-0.440973 h 0.31893 0.31891 l 0.67204,0.766196 0.67204,0.766197 -0.38217,-0.221512 -0.38218,-0.221511 v 0.49813 0.498131 l 0.30943,-0.191242 0.30944,-0.191241 0.49274,0.408941 0.49275,0.408941 -0.21537,0.561246 -0.21537,0.561245 0.36229,-0.22391 0.3623,-0.223911 0.92076,1.691755 0.92077,1.691755 0.54078,2.07618 0.54077,2.076181 v 94.449508 94.44951 l -0.35853,0.22159 -0.35853,0.22158 0.18329,0.29657 0.18329,0.29656 -0.22306,0.58128 -0.22306,0.58128 -0.57183,-0.21757 -0.57184,-0.21756 0.44097,0.44423 0.44097,0.44424 v 0.47943 0.47943 l -0.40728,-0.25172 -0.40729,-0.25171 0.25264,0.40877 0.25263,0.40877 -0.79072,1.4069 -0.79073,1.4069 -0.69673,-0.61464 -0.69674,-0.61463 0.57704,0.89793 0.57704,0.89793 -1.06211,1.28853 -1.06211,1.28853 -1.72626,1.11857 -1.72626,1.11858 -0.14051,-0.13004 -0.14051,-0.13003 -0.61736,0.61736 -0.61736,0.61736 h -0.6098 -0.6098 l -0.42333,0.42333 -0.42334,0.42334 v -0.21242 -0.21242 l -1.64356,0.49464 -1.64357,0.49464 z m 41.59565,-0.32918 h 0.17639 v -0.17639 -0.17639 h -0.17639 -0.17639 v 0.17639 0.17639 z m -85.019441,-0.70555 h 0.176389 v -0.17639 -0.17639 h -0.176389 -0.176388 v 0.17639 0.17639 z m -2.801402,-0.70556 h 0.155569 v -0.15557 -0.15557 l -0.407285,-0.25171 -0.407285,-0.25172 0.251716,0.40729 0.251716,0.40728 z m 44.429183,0 h 39.80509 l -0.17371,-0.17371 -0.17371,-0.17371 -39.44926,-0.008 -39.449265,-0.008 -0.18212,0.18212 -0.18212,0.18209 z m -46.016683,-1.05833 h 0.331958 v -0.13865 -0.13864 l -0.547489,-0.2101 -0.547489,-0.21009 0.215531,0.34874 0.215531,0.34874 z m 96.069483,0 h 0.17639 l 0.21803,-0.35278 0.21803,-0.35278 h -0.17639 -0.17639 l -0.21803,0.35278 -0.21803,0.35278 z m -97.216767,-0.51983 0.197483,-0.19749 -0.438354,-0.43509 -0.438355,-0.43509 0.240871,0.63257 0.240871,0.63258 z m 98.278997,0.16705 h 0.13865 l 0.21009,-0.54749 0.21009,-0.54749 -0.34874,0.21553 -0.34873,0.21553 v 0.33196 0.33196 z m -99.396259,-1.30247 0.479837,-0.18413 v -0.17639 -0.17639 l -0.519512,0.19936 -0.519513,0.19936 -0.524109,-0.74827 -0.524109,-0.74828 0.18,-0.29124 0.18,-0.29125 -0.635684,0.2384 -0.635684,0.2384 0.529167,-0.68341 0.529167,-0.68341 -0.610584,0.47854 -0.610584,0.47854 1.100885,1.16715 1.100885,1.16715 z m 101.602579,-0.61557 0.75747,-0.85916 0.21267,0.21267 0.21267,0.21268 v -0.19199 -0.19199 l -0.59688,-0.48417 -0.59689,-0.48417 0.2294,0.38348 0.22939,0.38348 -0.5241,0.74828 -0.52411,0.74827 -0.60771,-0.1949 -0.60771,-0.19488 0.52917,0.38578 0.52917,0.38579 z M 55.975422,244.5873 h 0.144497 l -0.208899,-0.54438 -0.208898,-0.54438 -0.168133,0.16813 -0.168133,0.16814 0.232534,0.37625 0.232535,0.37624 z m 101.463518,-0.26458 0.44423,-0.44097 -0.38351,-0.38352 -0.38352,-0.38351 -0.27071,0.43802 -0.27072,0.43802 0.46724,-0.28877 0.46724,-0.28876 -0.25724,0.67523 -0.25724,0.67523 z m 1.93382,-0.79375 h 0.13319 v -0.1332 -0.13319 l -0.61736,-0.48417 -0.61736,-0.48416 0.48417,0.61736 0.48417,0.61736 z M 53.496229,242.47064 h 0.176389 v -0.17639 -0.17639 h -0.176389 -0.176388 v 0.17639 0.17639 z m 106.186111,0 h 0.17639 v -0.17639 -0.17639 h -0.17639 -0.17639 v 0.17639 0.17639 z M 52.085118,241.05953 h 0.176389 v -0.17639 -0.17639 h -0.176389 -0.176389 v 0.17639 0.17639 z m 109.008332,0 h 0.17639 v -0.17639 -0.17639 h -0.17639 -0.17639 v 0.17639 0.17639 z m -0.70555,-0.35278 h 0.17638 v -0.17639 -0.17639 h -0.17638 -0.17639 v 0.17639 0.17639 z m 0.70555,-1.41111 h 0.17639 v -0.17639 -0.17639 h -0.17639 -0.17639 v 0.17639 0.17639 z m 1.46991,-2.58704 0.23518,-0.23519 -0.23518,-0.23518 -0.23519,-0.23519 v 0.47037 0.47037 z m -55.97408,-0.94074 h 53.62223 V 141.3998 47.031741 H 106.58928 52.967063 v 94.368059 94.36806 z m 56.26806,-0.35278 h 0.17639 v -0.17639 -0.17639 h -0.17639 -0.17639 v 0.17639 0.17639 z m -0.17639,-190.147228 0.34197,-0.529167 v -0.352778 -0.352778 l -0.34197,0.529167 -0.34197,0.529167 v 0.352778 0.352777 z M 50.380026,44.797481 50.615211,44.562296 50.380026,44.327111 50.144841,44.091926 v 0.47037 0.47037 z m 0.293981,-0.940741 h 0.176389 v -0.176388 -0.176389 h -0.176389 -0.176389 v 0.176389 0.176388 z M 162.15178,43.503963 h 0.17639 v -0.176389 -0.176389 h -0.17639 -0.17638 v 0.176389 0.176389 z M 51.203174,42.445629 h 0.47037 l -0.235185,-0.235185 -0.235185,-0.235185 -0.235185,0.235185 -0.235185,0.235185 z m 110.772226,0 h 0.47037 l -0.23519,-0.235185 -0.23518,-0.235185 -0.23519,0.235185 -0.23518,0.235185 z M 52.085118,41.740074 h 0.176389 v -0.176389 -0.176389 h -0.176389 -0.176389 v 0.176389 0.176389 z m -0.132613,-0.964259 0.438354,-0.435093 -0.197483,-0.197483 -0.197483,-0.197483 -0.240871,0.632575 -0.240871,0.632576 z m 109.199745,-0.211667 0.23518,-0.235185 -0.23518,-0.235186 -0.23519,-0.235185 v 0.470371 0.47037 z M 52.790674,39.976185 h 0.176389 v -0.176389 -0.176389 h -0.176389 -0.176389 v 0.176389 0.176389 z m 53.269446,-0.16405 18.34444,1.08e-4 -9.05928,-0.100324 -9.05929,-0.100323 -9.285159,0.100215 -9.285157,0.100216 z m 54.32778,0.16405 h 0.17638 v -0.176389 -0.176389 h -0.17638 -0.17639 v 0.176389 0.176389 z M 53.496229,38.917851 h 0.176389 v -0.176389 -0.176388 h -0.176389 -0.176388 v 0.176388 0.176389 z m 106.186111,0 h 0.17639 v -0.176389 -0.176388 h -0.17639 -0.17639 v 0.176388 0.176389 z M 53.496229,38.212296 h 0.176389 v -0.176389 -0.176389 h -0.176389 -0.176388 v 0.176389 0.176389 z m 106.186111,0 h 0.17639 v -0.176389 -0.176389 h -0.17639 -0.17639 v 0.176389 0.176389 z m -1.41111,-0.352778 h 0.17639 V 37.683129 37.50674 h -0.17639 -0.17639 v 0.176389 0.176389 z m -0.58203,-0.541277 0.12351,-0.117337 -0.23253,-0.376249 -0.23253,-0.376248 h -0.34587 -0.34587 l 0.45488,0.493586 0.45488,0.493586 z M 54.907341,37.153962 h 0.176388 v -0.176388 -0.176389 h -0.176388 -0.176389 v 0.176389 0.176388 z m 103.363889,0 h 0.17639 v -0.176388 -0.176389 h -0.17639 -0.17639 v 0.176389 0.176388 z m -2.00765,-0.358179 0.10901,0.0054 -0.21803,-0.352778 -0.21802,-0.352778 -0.42016,0.0054 -0.42015,0.0054 0.52917,0.341974 0.52916,0.341973 0.10902,0.0054 z m 0.24376,-0.700154 h 0.17639 V 35.91924 35.742851 h -0.17639 -0.17639 v 0.176389 0.176389 z m -1.03751,-0.352778 h 0.15557 v -0.155569 -0.155569 l -0.40729,-0.251716 -0.40728,-0.251716 0.25171,0.407285 0.25172,0.407285 z M 58.082341,34.684518 h 0.176388 V 34.508129 34.33174 h -0.176388 -0.176389 v 0.176389 0.176389 z m 95.993529,0 h 0.0968 l 0.20296,-0.328402 0.20296,-0.328401 -0.29973,-0.185247 -0.29974,-0.185247 v 0.513648 0.513649 z m 1.02036,0 h 0.17639 V 34.508129 34.33174 h -0.17639 -0.17639 v 0.176389 0.176389 z M 58.746256,34.33174 h 0.176389 l 0.218029,-0.352778 0.218029,-0.352777 h -0.176389 -0.176389 l -0.218029,0.352777 -0.218029,0.352778 z m 1.099973,0 h 0.176389 v -0.176389 -0.176389 h -0.176389 -0.176388 v 0.176389 0.176389 z m 93.486111,0 h 0.17639 v -0.176389 -0.176389 h -0.17639 -0.17639 v 0.176389 0.176389 z m -17.67663,-0.705555 h 0.13864 l 0.2101,-0.54749 0.21009,-0.547489 -0.34874,0.215531 -0.34874,0.215532 v 0.331958 0.331958 z m -2.07893,-0.352778 h 0.17639 v -0.176389 -0.176389 h -0.17639 -0.17638 v 0.176389 0.176389 z m 1.09519,0 h 0.3226 l 0.44062,-0.705556 0.44063,-0.705555 h -0.1247 -0.1247 l -0.63852,0.705555 -0.63852,0.705556 z m 12.83954,0 h 0.47037 l -0.23519,-0.235185 -0.23518,-0.235186 -0.23519,0.235186 -0.23518,0.235185 z m 2.64583,0 h 0.17639 v -0.176389 -0.176389 h -0.17639 -0.17639 v 0.176389 0.176389 z M 61.257341,32.920629 h 0.176388 V 32.74424 32.567851 h -0.176388 -0.176389 v 0.176389 0.176389 z m 15.875,0 h 0.176388 V 32.74424 32.567851 h -0.176388 -0.176389 v 0.176389 0.176389 z m 71.937269,-0.02785 0.67616,0.02785 -0.21314,-0.213137 -0.21314,-0.213136 -0.46302,0.185286 -0.46302,0.185285 z m 2.85162,0.02785 h 0.17639 V 32.74424 32.567851 h -0.17639 -0.17639 v 0.176389 0.176389 z M 62.668452,32.567851 h 0.176389 v -0.176389 -0.176389 h -0.176389 -0.176389 v 0.176389 0.176389 z m 2.822222,0 h 0.176389 v -0.176389 -0.176389 h -0.176389 -0.176389 v 0.176389 0.176389 z m 12.368042,0 h 0.155569 V 32.412282 32.256713 L 77.607,32.004997 l -0.407285,-0.251716 0.251716,0.407285 0.251716,0.407285 z m 56.070844,0 h 0.13475 l 0.18169,-0.293981 0.18169,-0.293982 h -0.49813 -0.49813 l 0.18169,0.293982 0.18169,0.293981 z m 13.75834,0 h 0.17638 v -0.176389 -0.176389 h -0.17638 -0.17639 v 0.176389 0.176389 z m 2.82222,0 h 0.17639 v -0.176389 -0.176389 h -0.17639 -0.17639 v 0.176389 0.176389 z M 64.785118,32.215073 h 0.176389 v -0.176389 -0.176388 h -0.176389 -0.176389 v 0.176388 0.176389 z m 1.763889,0 h 0.176389 v -0.176389 -0.176388 h -0.176389 -0.176389 v 0.176388 0.176389 z m 12.347222,0 h 0.176389 v -0.176389 -0.176388 h -0.176389 -0.176388 v 0.176388 0.176389 z m 0.705556,0 h 0.176389 v -0.176389 -0.176388 h -0.176389 -0.176389 v 0.176388 0.176389 z m 67.027775,0 h 0.17639 v -0.176389 -0.176388 h -0.17639 -0.17639 v 0.176388 0.176389 z m 1.76389,0 h 0.17639 v -0.176389 -0.176388 h -0.17639 -0.17639 v 0.176388 0.176389 z"
         id="path74"
         inkscape:connector-curvature="0" />
    </g>
  </g>
</svg>
